The tidyverse for Machine Learning
…
# Modelling

---

# Step 1. Train (75%) and test (25%) splits

```{r
data_tibble <- rep(list(data), 10) %>% 
  enframe(name = 'index', value = 'data') %>% 
  mutate(train_test = purrr::map(data, initial_split, prop = 3/4))
```

```
# A tibble: 10 x 3
  index data                  train_test         
  <int> <list>                <list>             
1     1 <tibble [5,698 × 50]> <split [4.3K/1.4K]>
2     2 <tibble [5,698 × 50]> <split [4.3K/1.4K]>
3     3 <tibble [5,698 × 50]> <split [4.3K/1.4K]>
# … with 7 more rows
```
…
```{r
data_tibble <- data_tibble %>% 
*  crossing(models) %>% 
   arrange(model)
```

# What do we have so far?

A tibble with:
  - All the train and test data
  - Their combinations with the all the model configurations

```
# A tibble: 90 x 5
  index data                  train_test          model   parameters      
  <int> <list>                <list>              <chr>   <list>          
1     1 <tibble [5,698 × 50]> <split [4.3K/1.4K]> bagging <named list [4]>
2     2 <tibble [5,698 × 50]> <split [4.3K/1.4K]> bagging <named list [4]>
3     3 <tibble [5,698 × 50]> <split [4.3K/1.4K]> bagging <named list [4]>
# … with 87 more rows
```
…
---

## A closer look at the RMSE

<img src="img/results.png" width="60%" style="display: block; margin: auto;" />

---

# The final object 

```
# A tibble: 90 x 10
  index data  train_test model parameters all_parameters model_trained  rmse
  <int> <lis> <list>     <chr> <list>     <list>         <list>        <dbl>
1     1 <tib… <split [4… bagg… <named li… <named list [… <fit[+]>       1.44
2     2 <tib… <split [4… bagg… <named li… <named list [… <fit[+]>       1.44
3     3 <tib… <split [4… bagg… <named li… <named list [… <fit[+]>       1.56
4     4 <tib… <split [4… bagg… <named li… <named list [… <fit[+]>       1.60
5     5 <tib… <split [4… bagg… <named li… <named list [… <fit[+]>       1.50
# … with 85 more rows, and 2 more variables: n_variables <int>, rsquared <dbl>
```
…
